…
``` r
library(quantec)
library(logger)

quantec_get_data(time_series_code = "NMS-EC_BUS", 
                 freq = "A", 
                 start_year = 2000, 
                 end_year = 2022)

# A tibble: 29 × 6                                                                                                                                                                                                    
#    title                                                                    unit                           source code           date       value
#    <chr>                                                                    <chr>                          <chr>  <chr>          <date>     <dbl>
#  1 SACU domestic sales - South Africa - Eastern Cape: Bus sales (> 8,500kg) Number (Sum of Monthly Values) NAAMSA NMS-EC_BUS-SAN 1994-12-31    10
#  2 SACU domestic sales - South Africa - Eastern Cape: Bus sales (> 8,500kg) Number (Sum of Monthly Values) NAAMSA NMS-EC_BUS-SAN 1995-12-31     7
#  3 SACU domestic sales - South Africa - Eastern Cape: Bus sales (> 8,500kg) Number (Sum of Monthly Values) NAAMSA NMS-EC_BUS-SAN 1996-12-31    28
#  4 SACU domestic sales - South Africa - Eastern Cape: Bus sales (> 8,500kg) Number (Sum of Monthly Values) NAAMSA NMS-EC_BUS-SAN 1997-12-31    70
#  5 SACU domestic sales - South Africa - Eastern Cape: Bus sales (> 8,500kg) Number (Sum of Monthly Values) NAAMSA NMS-EC_BUS-SAN 1998-12-31     7
#  6 SACU domestic sales - South Africa - Eastern Cape: Bus sales (> 8,500kg) Number (Sum of Monthly Values) NAAMSA NMS-EC_BUS-SAN 1999-12-31     3
#  7 SACU domestic sales - South Africa - Eastern Cape: Bus sales (> 8,500kg) Number (Sum of Monthly Values) NAAMSA NMS-EC_BUS-SAN 2000-12-31     6
#  8 SACU domestic sales - South Africa - Eastern Cape: Bus sales (> 8,500kg) Number (Sum of Monthly Values) NAAMSA NMS-EC_BUS-SAN 2001-12-31    25
#  9 SACU domestic sales - South Africa - Eastern Cape: Bus sales (> 8,500kg) Number (Sum of Monthly Values) NAAMSA NMS-EC_BUS-SAN 2002-12-31    53
# 10 SACU domestic sales - South Africa - Eastern Cape: Bus sales (> 8,500kg) Number (Sum of Monthly Values) NAAMSA NMS-EC_BUS-SAN 2003-12-31    17
# ℹ 19 more rows
# ℹ Use `print(n = ...)` to see more rows
```
If you want to turn on the logging:

``` r
library(quantec)
library(logger)

log_threshold(level = DEBUG)
quantec_get_data(time_series_code = "NMS-EC_BUS", 
                 freq = "A", 
                 start_year = 2000, 
                 end_year = 2022)

# DEBUG [2023-09-20 14:10:46] [NMS-EC_BUS] -- Querying with parameters: # [{"timeSeriesCodes":["NMS-EC_BUS"],"respFormat":["csv"],"freqs":["A"],"startYear":[2000],"endYear":[2022],"isTidy":[true]}]
# DEBUG [2023-09-20 14:10:46] [NMS-EC_BUS] -- Found 29 rows                                                                                                                                                            
# A tibble: 29 × 6
#    title                                                                    unit                           source code           date       value
#    <chr>                                                                    <chr>                          <chr>  <chr>          <date>     <dbl>
#  1 SACU domestic sales - South Africa - Eastern Cape: Bus sales (> 8,500kg) Number (Sum of Monthly Values) NAAMSA NMS-EC_BUS-SAN 1994-12-31    10
#  2 SACU domestic sales - South Africa - Eastern Cape: Bus sales (> 8,500kg) Number (Sum of Monthly Values) NAAMSA NMS-EC_BUS-SAN 1995-12-31     7
#  3 SACU domestic sales - South Africa - Eastern Cape: Bus sales (> 8,500kg) Number (Sum of Monthly Values) NAAMSA NMS-EC_BUS-SAN 1996-12-31    28
#  4 SACU domestic sales - South Africa - Eastern Cape: Bus sales (> 8,500kg) Number (Sum of Monthly Values) NAAMSA NMS-EC_BUS-SAN 1997-12-31    70
#  5 SACU domestic sales - South Africa - Eastern Cape: Bus sales (> 8,500kg) Number (Sum of Monthly Values) NAAMSA NMS-EC_BUS-SAN 1998-12-31     7
#  6 SACU domestic sales - South Africa - Eastern Cape: Bus sales (> 8,500kg) Number (Sum of Monthly Values) NAAMSA NMS-EC_BUS-SAN 1999-12-31     3
#  7 SACU domestic sales - South Africa - Eastern Cape: Bus sales (> 8,500kg) Number (Sum of Monthly Values) NAAMSA NMS-EC_BUS-SAN 2000-12-31     6
#  8 SACU domestic sales - South Africa - Eastern Cape: Bus sales (> 8,500kg) Number (Sum of Monthly Values) NAAMSA NMS-EC_BUS-SAN 2001-12-31    25
#  9 SACU domestic sales - South Africa - Eastern Cape: Bus sales (> 8,500kg) Number (Sum of Monthly Values) NAAMSA NMS-EC_BUS-SAN 2002-12-31    53
# 10 SACU domestic sales - South Africa - Eastern Cape: Bus sales (> 8,500kg) Number (Sum of Monthly Values) NAAMSA NMS-EC_BUS-SAN 2003-12-31    17
# ℹ 19 more rows
# ℹ Use `print(n = ...)` to see more rows
```
